{
  "project_info": {
    "project_number": "459888595363",
    "firebase_url": "https://fir-ai-android-chat-app-91e68.firebaseio.com",
    "project_id": "fir-ai-android-chat-app-91e68",
    "storage_bucket": "fir-ai-android-chat-app-91e68.appspot.com"
  },
  "client": [
    {
      "client_info": {
        "mobilesdk_app_id": "1:459888595363:android:2dca341a152c0dc71f8a16",
        "android_client_info": {
          "package_name": "com.makkhay.chat"
        }
      },
      "oauth_client": [
        {
          "client_id": "459888595363-nal9ee5r3ehjfs5k95nq8u6mmnpgdrjf.apps.googleusercontent.com",
          "client_type": 1,
          "android_info": {
            "package_name": "com.makkhay.chat",
            "certificate_hash": "652e98292f4ae35dbc4031826cb6cd9623f1db94"
          }
        },
        {
          "client_id": "459888595363-vcakfo0dg6slqasabpgkisajutand94g.apps.googleusercontent.com",
          "client_type": 3
        }
      ],
      "api_key": [
        {
          "current_key": "AIzaSyBxO-ARtHsVCUsqESm5uAUv9ZXtI0UhGr4"
        }
      ],
      "services": {
        "appinvite_service": {
          "other_platform_oauth_client": [
            {
              "client_id": "459888595363-vcakfo0dg6slqasabpgkisajutand94g.apps.googleusercontent.com",
              "client_type": 3
            }
          ]
        }
      }
    },
    {
      "client_info": {
        "mobilesdk_app_id": "1:459888595363:android:a6edaa5b04295ce71f8a16",
        "android_client_info": {
          "package_name": "com.oranjeclick.fb_crash_analytics"
        }
      },
      "oauth_client": [
        {
          "client_id": "459888595363-i944qnb6rgel6827iviqebkp1m35r819.apps.googleusercontent.com",
          "client_type": 1,
          "android_info": {
            "package_name": "com.oranjeclick.fb_crash_analytics",
            "certificate_hash": "652e98292f4ae35dbc4031826cb6cd9623f1db94"
          }
        },
        {
          "client_id": "459888595363-vcakfo0dg6slqasabpgkisajutand94g.apps.googleusercontent.com",
          "client_type": 3
        }
      ],
      "api_key": [
        {
          "current_key": "AIzaSyBxO-ARtHsVCUsqESm5uAUv9ZXtI0UhGr4"
        }
      ],
      "services": {
        "appinvite_service": {
          "other_platform_oauth_client": [
            {
              "client_id": "459888595363-vcakfo0dg6slqasabpgkisajutand94g.apps.googleusercontent.com",
              "client_type": 3
            }
          ]
        }
      }
    },
    {
      "client_info": {
        "mobilesdk_app_id": "1:459888595363:android:46b680160831e3a01f8a16",
        "android_client_info": {
          "package_name": "com.twilio.chat.demo.debug"
        }
      },
      "oauth_client": [
        {
          "client_id": "459888595363-pclppk0af1npgam7dkq9t0jiverai1nr.apps.googleusercontent.com",
          "client_type": 1,
          "android_info": {
            "package_name": "com.twilio.chat.demo.debug",
            "certificate_hash": "652e98292f4ae35dbc4031826cb6cd9623f1db94"
          }
        },
        {
          "client_id": "459888595363-vcakfo0dg6slqasabpgkisajutand94g.apps.googleusercontent.com",
          "client_type": 3
        }
      ],
      "api_key": [
        {
          "current_key": "AIzaSyBxO-ARtHsVCUsqESm5uAUv9ZXtI0UhGr4"
        }
      ],
      "services": {
        "appinvite_service": {
          "other_platform_oauth_client": [
            {
              "client_id": "459888595363-vcakfo0dg6slqasabpgkisajutand94g.apps.googleusercontent.com",
              "client_type": 3
            }
          ]
        }
      }
    }
  ],
  "configuration_version": "1"
}